<?xml version="1.0" encoding="UTF-8" standalone="no"?>
<!-- Created with Inkscape (http://www.inkscape.org/) -->

<svg
   xmlns:dc="http://purl.org/dc/elements/1.1/"
   xmlns:cc="http://creativecommons.org/ns#"
   xmlns:rdf="http://www.w3.org/1999/02/22-rdf-syntax-ns#"
   xmlns:svg="http://www.w3.org/2000/svg"
   xmlns="http://www.w3.org/2000/svg"
   xmlns:xlink="http://www.w3.org/1999/xlink"
   xmlns:sodipodi="http://sodipodi.sourceforge.net/DTD/sodipodi-0.dtd"
   xmlns:inkscape="http://www.inkscape.org/namespaces/inkscape"
   width="16px"
   height="16px"
   id="svg2816"
   version="1.1"
   inkscape:version="0.47 r22583"
   sodipodi:docname="dice.svg">
  <defs
     id="defs2818">
    <linearGradient
       id="linearGradient3739">
      <stop
         style="stop-color:#cb9c0b;stop-opacity:1;"
         offset="0"
         id="stop3741" />
      <stop
         style="stop-color:#fae4a0;stop-opacity:1;"
         offset="1"
         id="stop3743" />
    </linearGradient>
    <inkscape:perspective
       sodipodi:type="inkscape:persp3d"
       inkscape:vp_x="0 : 8 : 1"
       inkscape:vp_y="0 : 1000 : 0"
       inkscape:vp_z="16 : 8 : 1"
       inkscape:persp3d-origin="8 : 5.3333333 : 1"
       id="perspective2824" />
    <inkscape:perspective
       id="perspective3618"
       inkscape:persp3d-origin="0.5 : 0.33333333 : 1"
       inkscape:vp_z="1 : 0.5 : 1"
       inkscape:vp_y="0 : 1000 : 0"
       inkscape:vp_x="0 : 0.5 : 1"
       sodipodi:type="inkscape:persp3d" />
    <inkscape:perspective
       id="perspective3650"
       inkscape:persp3d-origin="0.5 : 0.33333333 : 1"
       inkscape:vp_z="1 : 0.5 : 1"
       inkscape:vp_y="0 : 1000 : 0"
       inkscape:vp_x="0 : 0.5 : 1"
       sodipodi:type="inkscape:persp3d" />
    <inkscape:perspective
       id="perspective3650-9"
       inkscape:persp3d-origin="0.5 : 0.33333333 : 1"
       inkscape:vp_z="1 : 0.5 : 1"
       inkscape:vp_y="0 : 1000 : 0"
       inkscape:vp_x="0 : 0.5 : 1"
       sodipodi:type="inkscape:persp3d" />
    <linearGradient
       inkscape:collect="always"
       xlink:href="#linearGradient3739"
       id="linearGradient3745"
       x1="1.5070206"
       y1="4.484252"
       x2="13.835949"
       y2="4.484252"
       gradientUnits="userSpaceOnUse"
       gradientTransform="translate(0.3285151,-0.114173)" />
    <linearGradient
       inkscape:collect="always"
       xlink:href="#linearGradient3739"
       id="linearGradient3753"
       x1="7.6714849"
       y1="9.8070869"
       x2="13.808673"
       y2="9.8070869"
       gradientUnits="userSpaceOnUse"
       gradientTransform="translate(0.3285151,-0.114173)" />
    <linearGradient
       inkscape:collect="always"
       xlink:href="#linearGradient3739"
       id="linearGradient3761"
       x1="1.534297"
       y1="9.7992125"
       x2="7.7192187"
       y2="9.7992125"
       gradientUnits="userSpaceOnUse"
       gradientTransform="translate(0.3285151,-0.114173)" />
  </defs>
  <sodipodi:namedview
     id="base"
     pagecolor="#ffffff"
     bordercolor="#666666"
     borderopacity="1.0"
     inkscape:pageopacity="0.0"
     inkscape:pageshadow="2"
     inkscape:zoom="53.3125"
     inkscape:cx="4.9519343"
     inkscape:cy="7.5629312"
     inkscape:current-layer="layer1"
     showgrid="true"
     inkscape:grid-bbox="true"
     inkscape:document-units="px"
     inkscape:snap-nodes="true"
     inkscape:snap-bbox="false"
     objecttolerance="10"
     guidetolerance="10"
     inkscape:window-width="1600"
     inkscape:window-height="1150"
     inkscape:window-x="0"
     inkscape:window-y="25"
     inkscape:window-maximized="1"
     inkscape:snap-global="true"
     showguides="true"
     inkscape:guide-bbox="true">
    <inkscape:grid
       type="xygrid"
       id="grid3598"
       empspacing="4"
       visible="false"
       enabled="true"
       snapvisiblegridlinesonly="true"
       spacingx="0.5px"
       spacingy="0.5px" />
    <inkscape:grid
       type="axonomgrid"
       id="grid3725"
       units="px"
       empspacing="4"
       visible="true"
       enabled="true"
       snapvisiblegridlinesonly="true"
       spacingy="0.5773px"
       originx="0px" />
  </sodipodi:namedview>
  <metadata
     id="metadata2821">
    <rdf:RDF>
      <cc:Work
         rdf:about="">
        <dc:format>image/svg+xml</dc:format>
        <dc:type
           rdf:resource="http://purl.org/dc/dcmitype/StillImage" />
        <dc:title />
      </cc:Work>
    </rdf:RDF>
  </metadata>
  <g
     id="layer1"
     inkscape:label="Layer 1"
     inkscape:groupmode="layer">
    <path
       style="fill:url(#linearGradient3761);fill-opacity:1;stroke:none"
       d="M 1.8628121,11.456693 8,15 8.0477337,7.885827 1.8628121,4.370079 l 0,7.086614 z"
       id="path3733"
       sodipodi:nodetypes="ccccc" />
    <path
       style="fill:url(#linearGradient3753);fill-opacity:1;stroke:none"
       d="m 8,15 6.137188,-3.543307 0,-7.070866 L 8,7.9133861 8,15 z"
       id="path3735"
       sodipodi:nodetypes="ccccc" />
    <path
       style="fill:url(#linearGradient3745);fill-opacity:1;stroke:none"
       d="M 1.8355357,4.385827 8,0.82677188 14.164464,4.385827 8,7.9133861 1.8355357,4.385827 z"
       id="path3737"
       sodipodi:nodetypes="ccccc" />
    <path
       style="fill:none;stroke:#000000;stroke-width:1px;stroke-linecap:butt;stroke-linejoin:round;stroke-opacity:1"
       d="m 1.8285151,4.385827 0,7.170325 L 8,15 14.137188,11.456693 14.109911,4.385827 8,0.82677188 1.8285151,4.385827 z"
       id="path3763"
       sodipodi:nodetypes="ccccccc" />
    <path
       style="fill:none;stroke:#000000;stroke-width:1px;stroke-linecap:butt;stroke-linejoin:miter;stroke-opacity:1"
       d="M 1.8291013,4.3875855 8,7.9133861 14.109911,4.385827"
       id="path3765" />
    <path
       style="fill:none;stroke:#000000;stroke-width:1px;stroke-linecap:butt;stroke-linejoin:miter;stroke-opacity:1"
       d="M 8.0002619,7.8764483 8,15"
       id="path3767" />
  </g>
</svg>
